s1	s2	s3	s4	s5	s6	s7	s8	s9	s10	s11
s1	1	1	2	0.5	1	1	1	1	1	0.5	0.5
s2	NA	1	1	0.5	1	1	0.5	2	1	4	2
s3	NA	NA	1	0.5	2	0.5	1	2	2	4	1
s4	NA	NA	NA	1	1	1	2	4	2	2	1
s5	NA	NA	NA	NA	1	1	2	4	2	1	1
s6	NA	NA	NA	NA	NA	1	1	4	1	1	2
s7	NA	NA	NA	NA	NA	NA	1	4	2	1	1
s8	NA	NA	NA	NA	NA	NA	NA	1	2	1	1
s9	NA	NA	NA	NA	NA	NA	NA	NA	1	0.5	0.5
s10	NA	NA	NA	NA	NA	NA	NA	NA	NA	1	1
s11	NA	NA	NA	NA	NA	NA	NA	NA	NA	NA	1
