s1	s2	s3	s4	s5	s6	s7	s8	s9	s10	s11
s1	1	2	2	0.5	0.5	0.5	1	0.5	0.5	0.5	1
s2	NA	1	4	0.5	1	1	0.5	0.25	0.25	1	1
s3	NA	NA	1	0.25	0.25	0.5	0.5	0.5	0.5	1	1
s4	NA	NA	NA	1	4	2	1	1	2	0.25	0.25
s5	NA	NA	NA	NA	1	1	1	1	1	2	2
s6	NA	NA	NA	NA	NA	1	0.25	0.25	0.25	0.5	0.5
s7	NA	NA	NA	NA	NA	NA	1	1	1	4	4
s8	NA	NA	NA	NA	NA	NA	NA	1	1	4	4
s9	NA	NA	NA	NA	NA	NA	NA	NA	1	4	4
s10	NA	NA	NA	NA	NA	NA	NA	NA	NA	1	4
s11	NA	NA	NA	NA	NA	NA	NA	NA	NA	NA	1
