"AdmPub","Cidad","Cienc","GrpInt","Neg","PolGov"
3.34441989214953,3.33628611909511,2.86795898294635,3.45445802718597,4.22744209920103,2.10993436615922
3.00274638668484,3.28547267879152,3.3802437998832,3.41946512495661,4.94445273153025,2.81061178499456
2.4562194588955,3.96203266508783,3.4745056964835,5,4.61772038881914,2.61192955472738
3.40085948818856,1.57502966452372,2.10028167654874,4.76738170520415,4.05959604571746,3.72776854056403
1.9380520008945,4.39175427417956,4.19399182034709,4.75210643111271,3.59183311428327,3.37000947001235
2.90661663356987,3.42215250268642,3.69228403921069,1,5,4.09404967950644
1.99219691963722,3.05956642345752,3.87509107025266,1.65528545685717,3.84515211696723,2.87193867446267
1.92593540762906,2.61948151279715,3.56303060267418,1,2.89501005082258,1.59399609425311
2.03343867325814,4.38798122329943,3.77741422224112,4.28547117340741,2.90681756704316,1.69472833381196
1.99891048724127,4.74352227255802,3.81296865565253,4.04488576115089,1,1.23381655104212
