g1,g2,aver
4.0541037518,5.1554346761,4.604769214
4.1261374715,3.7488688341,3.9375031528
5.9173956876,1.5759380194,3.7466668535
1,10,5.5
5.9866006716,1,3.4933003358
1.4456497805,6.5857240876,4.015686934
4.2320964827,8.5107468895,6.3714216861
7.1309454763,9.2855151658,8.208230321
8.0450761544,2.1319075907,5.0884918725
10,1.3275120827,5.6637560413
